{
    	"version": "3.0",
    	"port": 8080,
   	"key": "5ff7be537913e8e680ba064e",
	"api_delay": "1", 
	"DBexecute_delay": "10",
    	"database1": {
      	  "address1" : "localhost",
      	  "user1": "root",
      	  "password1": "eHfr9sLz1RTXM#4ECqNz",
      	  "database1": "bol"
  	  },
   	"database2": {
    	   "address2" : "localhost",
     	   "user2": "root",
     	   "password2": "eHfr9sLz1RTXM#4ECqNz",
     	   "database2": "bol2"
    	},
	"database3": {
    	   "address3" : "localhost",
     	   "user3": "root",
     	   "password3": "eHfr9sLz1RTXM#4ECqNz",
     	   "database3": "Queue"
    	}
    
}

